{
  "_fv": 47,
  "_type": "tool",
  "definition": {
    "toolType": "Pickaxe",
    "renderType": 0,
    "texture": "texture_5",
    "customModelName": "Normal",
    "name": "Picareta de Cactu",
    "specialInfo": [],
    "creativeTab": {
      "value": "TOOLS"
    },
    "harvestLevel": 6,
    "efficiency": 6.0,
    "attackSpeed": 5.0,
    "enchantability": 14,
    "damageVsEntity": 5.0,
    "usageCount": 250,
    "blocksAffected": [],
    "hasGlow": true,
    "repairItems": [
      {
        "value": "Blocks.CACTUS"
      }
    ],
    "immuneToFire": false,
    "stayInGridWhenCrafting": false,
    "damageOnCrafting": false
  }
}