{
  "_fv": 47,
  "_type": "tool",
  "definition": {
    "toolType": "Spade",
    "renderType": 0,
    "texture": "texture_4",
    "customModelName": "Normal",
    "name": "Pa de Diamante Rosa ",
    "specialInfo": [],
    "creativeTab": {
      "value": "TOOLS"
    },
    "harvestLevel": 2,
    "efficiency": 7.0,
    "attackSpeed": 1.0,
    "enchantability": 17,
    "damageVsEntity": 2.0,
    "usageCount": 323,
    "blocksAffected": [],
    "hasGlow": false,
    "repairItems": [
      {
        "value": "CUSTOM:MinerioDiamanteRosa"
      }
    ],
    "immuneToFire": false,
    "stayInGridWhenCrafting": false,
    "damageOnCrafting": false
  }
}