{
  "_fv": 47,
  "_type": "tool",
  "definition": {
    "toolType": "Axe",
    "renderType": 0,
    "texture": "texture_7",
    "customModelName": "Normal",
    "name": "Facao de Corta Queijo",
    "specialInfo": [],
    "creativeTab": {
      "value": "TOOLS"
    },
    "harvestLevel": 2,
    "efficiency": 6.0,
    "attackSpeed": 1.0,
    "enchantability": 14,
    "damageVsEntity": 9.0,
    "usageCount": 250,
    "blocksAffected": [],
    "hasGlow": false,
    "repairItems": [
      {
        "value": "CUSTOM:Minerio_do_MineiroIngot"
      }
    ],
    "immuneToFire": false,
    "stayInGridWhenCrafting": false,
    "damageOnCrafting": false
  }
}