{
  "_fv": 47,
  "_type": "recipe",
  "definition": {
    "recipeType": "Smelting",
    "recipeRetstackSize": 1,
    "group": "",
    "cookingBookCategory": "MISC",
    "xpReward": 0.7,
    "cookingTime": 200,
    "craftingBookCategory": "MISC",
    "recipeShapeless": false,
    "smeltingInputStack": {
      "value": "CUSTOM:Minerio_do_MineiroOre"
    },
    "smeltingReturnStack": {
      "value": "CUSTOM:Minerio_do_MineiroIngot"
    },
    "name": "minerio_do_mineiro_ore_smelting",
    "namespace": "mod"
  }
}