{
  "parent": "block/fence_side",
  "textures": {
    "texture": "conflict_soul:block/madeira_clara_rosada_planks",
    "particle": "conflict_soul:block/madeira_clara_rosada_planks"
  },
  "render_type": "solid"
}