{
  "parent": "block/outer_stairs",
  "textures": {
    "bottom": "conflict_soul:block/madeira_branca_planks",
    "top": "conflict_soul:block/madeira_branca_planks",
    "side": "conflict_soul:block/madeira_branca_planks"
  },
  "render_type": "solid"
}