{
  "type": "minecraft:crafting_shaped",
  "category": "equipment",
  "pattern": [
    "01",
    "23",
    " 5"
  ],
  "key": {
    "0": {
      "item": "conflict_soul:miinerio_cristalizado_dourado_dust"
    },
    "1": {
      "item": "conflict_soul:miinerio_cristalizado_dourado_dust"
    },
    "2": {
      "item": "conflict_soul:miinerio_cristalizado_dourado_dust"
    },
    "3": {
      "item": "minecraft:stick"
    },
    "5": {
      "item": "minecraft:stick"
    }
  },
  "result": {
    "item": "conflict_soul:cristali_axe",
    "count": 1
  }
}