{
  "type": "minecraft:crafting_shaped",
  "category": "equipment",
  "pattern": [
    "0",
    "1",
    "2"
  ],
  "key": {
    "0": {
      "item": "conflict_soul:minerio_diamante_rosa"
    },
    "1": {
      "item": "minecraft:stick"
    },
    "2": {
      "item": "minecraft:stick"
    }
  },
  "result": {
    "item": "conflict_soul:diamante_rosa_kit_shovel",
    "count": 1
  }
}