{
  "type": "minecraft:crafting_shaped",
  "group": "bark",
  "category": "building",
  "pattern": [
    "01",
    "23"
  ],
  "key": {
    "0": {
      "item": "conflict_soul:madeira_clara_rosada_log"
    },
    "1": {
      "item": "conflict_soul:madeira_clara_rosada_log"
    },
    "2": {
      "item": "conflict_soul:madeira_clara_rosada_log"
    },
    "3": {
      "item": "conflict_soul:madeira_clara_rosada_log"
    }
  },
  "result": {
    "item": "conflict_soul:madeira_clara_rosada_wood",
    "count": 3
  }
}