{
  "type": "minecraft:crafting_shapeless",
  "group": "wooden_button",
  "category": "redstone",
  "ingredients": [
    {
      "item": "conflict_soul:madeira_clara_rosada_planks"
    }
  ],
  "result": {
    "item": "conflict_soul:madeira_clara_rosada_button",
    "count": 1
  }
}