{
  "type": "minecraft:crafting_shaped",
  "group": "wooden_fence",
  "category": "misc",
  "pattern": [
    "012",
    "345"
  ],
  "key": {
    "0": {
      "item": "conflict_soul:madeira_clara_rosada_planks"
    },
    "1": {
      "item": "minecraft:stick"
    },
    "2": {
      "item": "conflict_soul:madeira_clara_rosada_planks"
    },
    "3": {
      "item": "conflict_soul:madeira_clara_rosada_planks"
    },
    "4": {
      "item": "minecraft:stick"
    },
    "5": {
      "item": "conflict_soul:madeira_clara_rosada_planks"
    }
  },
  "result": {
    "item": "conflict_soul:madeira_clara_rosada_fence",
    "count": 3
  }
}