{
  "variants": {
    "axis=x": {
      "model": "conflict_soul:block/madeira_clara_rosada_log",
      "x": 90,
      "y": 90
    },
    "axis=y": {
      "model": "conflict_soul:block/madeira_clara_rosada_log"
    },
    "axis=z": {
      "model": "conflict_soul:block/madeira_clara_rosada_log",
      "x": 90
    }
  }
}